{
    "name": "NodeCommodity",
    "fields": [
        {
            "fieldName": "supplyDemand",
            "fieldType": "Integer",
            "fieldValidateRules": [
                "required"
            ]
        }
    ],
    "relationships": [
        {
            "relationshipType": "many-to-one",
            "relationshipName": "commodity",
            "otherEntityName": "commodity",
            "otherEntityField": "id"
        },
        {
            "relationshipType": "many-to-one",
            "relationshipName": "node",
            "otherEntityName": "node",
            "otherEntityField": "id"
        }
    ],
    "changelogDate": "20181112123548",
    "entityTableName": "node_commodity",
    "dto": "mapstruct",
    "pagination": "infinite-scroll",
    "service": "serviceClass",
    "jpaMetamodelFiltering": false,
    "fluentMethods": true,
    "clientRootFolder": "",
    "applications": "*"
}